{
    "courses": [{
            "id": 1,
            "title": "Curso de Ingles",
            "author": "Alejo",
            "topic": "ingles",
            "url": "http://www.google.com"
        },
        {
            "id": 2,
            "title": "Curso de Aleman",
            "author": "Marlene",
            "topic": "aleman",
            "url": "http://www.google.com"
        },
        {
            "id": 3,
            "title": "Curso de Frances",
            "author": "Maria",
            "topic": "frances",
            "url": "http://www.google.com"
        },
        {
            "id": 4,
            "title": "Curso de Español",
            "author": "Victor",
            "topic": "español",
            "url": "http://www.google.com"
        }
    ]
}